{
  "name": "puppet-unattended_upgrades",
  "version": "2.1.0",
  "author": "Vox Pupuli",
  "summary": "Provides an interface for managing Apt unattended_upgrades with Puppet",
  "license": "Apache-2.0",
  "source": "https://github.com/voxpupuli/puppet-unattended_upgrades.git",
  "project_page": "https://github.com/voxpupuli/puppet-unattended_upgrades",
  "issues_url": "https://github.com/voxpupuli/puppet-unattended_upgrades/issues",
  "dependencies": [
    {"name":"puppetlabs/stdlib","version_requirement":">= 4.6.0 < 5.0.0"},
    {"name":"puppetlabs/apt","version_requirement":">= 2.2.0 < 3.0.0"}
  ],
  "data_provider": null,
  "operatingsystem_support": [
    {
      "operatingsystem": "Debian",
      "operatingsystemrelease": [
        "6",
        "7"
      ]
    },
    {
      "operatingsystem": "Ubuntu",
      "operatingsystemrelease": [
        "10.04",
        "12.04",
        "14.04"
      ]
    }
  ],
  "requirements": [
    {
      "name": "puppet",
      "version_requirement": ">= 3.4.0 < 5.0.0"
    }
  ]
}
